%YAML 1.1
%TAG !u! tag:unity3d.com,2011:
--- !u!1045 &1
EditorBuildSettings:
  m_ObjectHideFlags: 0
  serializedVersion: 2
  m_Scenes:
  - enabled: 0
    path: Assets/Portal/ARPortal.unity
    guid: 8c925467ad038e54ab4a61efd265af50
  - enabled: 1
    path: Assets/CamBG/CamBG.unity
    guid: a0689d499a6704649b2bcd4f22d0d64b
  m_configObjects:
    Unity.XR.WindowsMR.Settings: {fileID: 11400000, guid: 2b52056e343e1ae45a21b9d0c4e4a8d1,
      type: 2}
    UnityEditor.XR.ARCore.ARCoreSettings: {fileID: 11400000, guid: 97cac1f0ec924994891bcfc121427a10,
      type: 2}
    com.unity.xr.management.loader_settings: {fileID: 11400000, guid: 81b84c3e92bd0354d93d141ba43e1659,
      type: 2}
